{
  "prepare_queue": {
    "installed": [],
    "uninstalled": []
  },
  "config_munge": {
    "files": {}
  },
  "installed_plugins": {
    "cordova-android-support-gradle-release": {
      "ANDROID_SUPPORT_VERSION": "27.0.0",
      "PACKAGE_NAME": "com.taxidriver.app"
    },
    "cordova-plugin-accountkit": {
      "APP_ID": "1746463108767153",
      "APP_NAME": "RoadRacers",
      "CLIENT_TOKEN": "d460c4c03ec0197e43a1d1e665e99138",
      "API_VERSION": "v1.0",
      "PACKAGE_NAME": "com.taxidriver.app"
    },
    "cordova-plugin-advanced-http": {
      "PACKAGE_NAME": "com.taxidriver.app"
    },
    "cordova-plugin-background-mode": {
      "PACKAGE_NAME": "com.taxidriver.app"
    },
    "cordova-plugin-browsertab": {
      "PACKAGE_NAME": "com.taxidriver.app"
    },
    "cordova-plugin-buildinfo": {
      "PACKAGE_NAME": "com.taxidriver.app"
    },
    "cordova-plugin-camera": {
      "PACKAGE_NAME": "com.taxidriver.app"
    },
    "cordova-plugin-device": {
      "PACKAGE_NAME": "com.taxidriver.app"
    },
    "cordova-plugin-googlemaps": {
      "API_KEY_FOR_ANDROID": "AIzaSyC2VPPqUJdOaeOW8VpNA3Y1iswP_uJ_wrY",
      "PLAY_SERVICES_VERSION": "15.0.1",
      "ANDROID_SUPPORT_V4_VERSION": "26.1.0",
      "PACKAGE_NAME": "com.taxidriver.app"
    },
    "cordova-plugin-inappbrowser": {
      "PACKAGE_NAME": "com.taxidriver.app"
    },
    "cordova-plugin-ionic-webview": {
      "PACKAGE_NAME": "com.taxidriver.app"
    },
    "cordova-plugin-splashscreen": {
      "PACKAGE_NAME": "com.taxidriver.app"
    },
    "cordova-plugin-statusbar": {
      "PACKAGE_NAME": "com.taxidriver.app"
    },
    "cordova-plugin-whitelist": {
      "PACKAGE_NAME": "com.taxidriver.app"
    },
    "ionic-plugin-keyboard": {
      "PACKAGE_NAME": "com.taxidriver.app"
    },
    "mx.ferreyra.callnumber": {
      "PACKAGE_NAME": "com.taxidriver.app"
    },
    "onesignal-cordova-plugin": {
      "PACKAGE_NAME": "com.taxidriver.app"
    },
    "cordova-plugin-geolocation": {
      "PACKAGE_NAME": "com.taxidriver.app"
    },
    "cordova-plugin-nativegeocoder": {
      "PACKAGE_NAME": "com.taxidriver.app"
    }
  },
  "dependent_plugins": {
    "cordova-plugin-file": {
      "PACKAGE_NAME": "com.taxidriver.app"
    }
  }
}